Compute univariate descriptive statistics — descript • SimDesign
…
# if you want a tibble from the list of information instead
fmtcars |> group_by(cyl) |> descript(collapse=TRUE)
#> # A tibble: 24 × 13
#>    cyl   VARS      n   mean   trim     sd     skew    kurt    min    P25    P50
#>    <fct> <fct> <dbl>  <dbl>  <dbl>  <dbl>    <dbl>   <dbl>  <dbl>  <dbl>  <dbl>
#>  1 4     mpg      11  26.7   26.4   4.51   0.259   -1.65    21.4   22.8   26   
#>  2 4     disp     11 105.   104.   26.9    0.121   -1.64    71.1   78.8  108   
#>  3 4     hp       11  82.6   82.7  20.9    0.00626 -1.71    52     65.5   91   
#>  4 4     drat     11   4.07   4.02  0.365  0.998    0.123    3.69   3.81   4.08
#>  5 4     wt       11   2.29   2.27  0.570  0.300   -1.36     1.51   1.88   2.2 
#>  6 4     qsec     11  19.1   19.0   1.68   0.550   -0.0207  16.7   18.6   18.9 
#>  7 4     gear     11   4.09   4.11  0.539  0.115   -0.0106   3      4      4   
#>  8 4     carb     11   1.55   1.56  0.522 -0.158   -2.15     1      1      2   
#>  9 6     mpg       7  19.7   19.7   1.45  -0.158   -1.91    17.8   18.6   19.7 
#> 10 6     disp      7 183.   183.   41.6    0.795   -1.23   145    160    168.  
#> # ℹ 14 more rows
#> # ℹ 2 more variables: P75 <dbl>, max <dbl>
…
#> ------------------------------------------------------------
#>  
#> VARIABLE: carb
#> # A tibble: 6 × 2
#>       n  mean
#>   <dbl> <dbl>
#> 1     3  1.67
#> 2     4  2.5 
#> 3    12  3.08
#> 4     8  1.5 
#> 5     3  4.67
#> 6     2  6   
fmtcars |> group_by(cyl) |> descript(collapse=TRUE) |>
  select(cyl, VARS, n, mean)
#> # A tibble: 24 × 4
#>    cyl   VARS      n   mean
#>    <fct> <fct> <dbl>  <dbl>
#>  1 4     mpg      11  26.7 
#>  2 4     disp     11 105.  
#>  3 4     hp       11  82.6 
#>  4 4     drat     11   4.07
#>  5 4     wt       11   2.29
#>  6 4     qsec     11  19.1 
#>  7 4     gear     11   4.09
#>  8 4     carb     11   1.55
#>  9 6     mpg       7  19.7 
#> 10 6     disp      7 183.  
#> # ℹ 14 more rows
…
