…
if (FALSE) { # \dontrun{
# in real-world simulations it's often better/easier to save
# these functions directly to your hard-drive with
SimFunctions('my-simulation')
} # }

#### Step 1 --- Define your conditions under study and create design data.frame

Design <- createDesign(sample_size = c(30, 60, 90, 120),
                       group_size_ratio = c(1, 4, 8),
                       standard_deviation_ratio = c(.5, 1, 2))
Design
#> # A tibble: 36 × 3
#>    sample_size group_size_ratio standard_deviation_ratio
#>          <dbl>            <dbl>                    <dbl>
#>  1          30                1                      0.5
#>  2          60                1                      0.5
#>  3          90                1                      0.5
#>  4         120                1                      0.5
#>  5          30                4                      0.5
#>  6          60                4                      0.5
#>  7          90                4                      0.5
#>  8         120                4                      0.5
#>  9          30                8                      0.5
#> 10          60                8                      0.5
#> # ℹ 26 more rows
…
Summarise <- function(condition, results, fixed_objects) {
    #find results of interest here (e.g., alpha < .1, .05, .01)
    ret <- EDR(results, alpha = .05)
    ret
}


#~~~~~~~~~~~~~~~~~~~~~~~~
#### Step 3 --- Collect results by looping over the rows in design

# first, test to see if it works
res <- runSimulation(design=Design, replications=2,
                     generate=Generate, analyse=Analyse, summarise=Summarise)
res
#> # A tibble: 36 × 9
#>    sample_size group_size_ratio standard_deviation_ratio welch independent
#>          <dbl>            <dbl>                    <dbl> <dbl>       <dbl>
#>  1          30                1                      0.5   0           0  
#>  2          60                1                      0.5   0           0  
#>  3          90                1                      0.5   0           0  
#>  4         120                1                      0.5   0           0  
#>  5          30                4                      0.5   0.5         0.5
#>  6          60                4                      0.5   0           0.5
#>  7          90                4                      0.5   0           0  
#>  8         120                4                      0.5   0           0  
#>  9          30                8                      0.5   0           0.5
#> 10          60                8                      0.5   0           0.5
#> # ℹ 26 more rows
#> # ℹ 4 more variables: REPLICATIONS <dbl>, SIM_TIME <chr>, SEED <int>,
#> #   COMPLETED <chr>
…
# make some plots
library(ggplot2)
library(tidyr)
dd <- res %>%
   select(group_size_ratio, standard_deviation_ratio, welch, independent) %>%
   pivot_longer(cols=c('welch', 'independent'), names_to = 'stats')
dd
#> # A tibble: 72 × 4
#>    group_size_ratio standard_deviation_ratio stats       value
#>               <dbl>                    <dbl> <chr>       <dbl>
#>  1                1                      0.5 welch         0  
#>  2                1                      0.5 independent   0  
#>  3                1                      0.5 welch         0  
#>  4                1                      0.5 independent   0  
#>  5                1                      0.5 welch         0  
#>  6                1                      0.5 independent   0  
#>  7                1                      0.5 welch         0  
#>  8                1                      0.5 independent   0  
#>  9                4                      0.5 welch         0.5
#> 10                4                      0.5 independent   0.5
#> # ℹ 62 more rows
…
