Run a Monte Carlo simulation given conditions and simulation functions — runSimulation • SimDesign
…
if (FALSE) { # \dontrun{
# in real-world simulations it's often better/easier to save
# these functions directly to your hard-drive with
SimFunctions('my-simulation')
} # }

#### Step 1 --- Define your conditions under study and create design data.frame

Design <- createDesign(sample_size = c(30, 60, 90, 120),
                       group_size_ratio = c(1, 4, 8),
                       standard_deviation_ratio = c(.5, 1, 2))
Design
#> # A tibble: 36 × 3
#>    sample_size group_size_ratio standard_deviation_ratio
#>          <dbl>            <dbl>                    <dbl>
#>  1          30                1                      0.5
#>  2          60                1                      0.5
#>  3          90                1                      0.5
#>  4         120                1                      0.5
#>  5          30                4                      0.5
#>  6          60                4                      0.5
#>  7          90                4                      0.5
#>  8         120                4                      0.5
#>  9          30                8                      0.5
#> 10          60                8                      0.5
#> # ℹ 26 more rows
…
#>  Conditions: sample_size=30, group_size_ratio=8, standard_deviation_ratio=2
#> 
#> Design: 34/36;   Replications: 2   Total Time: 0.16s 
#>  Conditions: sample_size=60, group_size_ratio=8, standard_deviation_ratio=2
#> 
#> Design: 35/36;   Replications: 2   Total Time: 0.17s 
#>  Conditions: sample_size=90, group_size_ratio=8, standard_deviation_ratio=2
#> 
#> Design: 36/36;   Replications: 2   Total Time: 0.17s 
#>  Conditions: sample_size=120, group_size_ratio=8, standard_deviation_ratio=2
#> 
#> 
#> Simulation complete. Total execution time: 0.18s
res
#> # A tibble: 36 × 9
#>    sample_size group_size_ratio standard_deviation_ratio welch independent
#>          <dbl>            <dbl>                    <dbl> <dbl>       <dbl>
#>  1          30                1                      0.5   0           0  
#>  2          60                1                      0.5   0           0  
#>  3          90                1                      0.5   0           0  
#>  4         120                1                      0.5   0           0  
#>  5          30                4                      0.5   0.5         0.5
#>  6          60                4                      0.5   0           0.5
#>  7          90                4                      0.5   0           0  
#>  8         120                4                      0.5   0           0  
#>  9          30                8                      0.5   0           0.5
#> 10          60                8                      0.5   0           0.5
#> # ℹ 26 more rows
#> # ℹ 4 more variables: REPLICATIONS <dbl>, SIM_TIME <chr>, SEED <int>,
#> #   COMPLETED <chr>
…
