Type I error rates and Power rate estimates
…
Step 3: Run the simulation

In this case a few extra arguments are passed to runSimulation(). To help speed things up, the use of parallel architecture is used by passing parallel = TRUE, and messages printed to the console are disabled by passing verbose = FALSE.

res <- runSimulation(design = Design, replications = 1000, 
                     generate = Generate, analyse = Analyse, summarise = Summarise,
                     verbose = FALSE, parallel = TRUE)

Analyse the results

Usually it is a good idea to split up analyses into Type I error and power rates data, and to make design conditions into factors if/where necessary. More specifically, Power rates really should only be interpreted when the Type I errors are well behaved (liberal detection rates naturally will result in more powerful tests, while conservative detection rates will induce lower power).

res

# A tibble: 72 × 10
   sample_size group_size_ratio standard_deviation_ratio mean_difference welch
         <dbl>            <dbl>                    <dbl>           <dbl> <dbl>
 1          30              0.5                        1               0 0.042
 2          60              0.5                        1               0 0.051
 3          90              0.5                        1               0 0.05 
 4         120              0.5                        1               0 0.051
 5          30              1                          1               0 0.053
 6          60              1                          1               0 0.05 
 7          90              1                          1               0 0.051
 8         120              1                          1               0 0.052
 9          30              2                          1               0 0.053
10          60              2                          1               0 0.051
# ℹ 62 more rows
# ℹ 5 more variables: independent <dbl>, REPLICATIONS <dbl>, SIM_TIME <chr>,
#   SEED <int>, COMPLETED <chr>

(TypeI <- subset(res, mean_difference == 0, select=sample_size:independent))

# A tibble: 36 × 6
   sample_size group_size_ratio standard_deviation_ratio mean_difference welch
         <dbl>            <dbl>                    <dbl>           <dbl> <dbl>
 1          30              0.5                        1               0 0.042
 2          60              0.5                        1               0 0.051
 3          90              0.5                        1               0 0.05 
 4         120              0.5                        1               0 0.051
 5          30              1                          1               0 0.053
 6          60              1                          1               0 0.05 
 7          90              1                          1               0 0.051
 8         120              1                          1               0 0.052
 9          30              2                          1               0 0.053
10          60              2                          1               0 0.051
# ℹ 26 more rows
# ℹ 1 more variable: independent <dbl>

(Power <- subset(res, mean_difference != 0, select=sample_size:independent))

# A tibble: 36 × 6
   sample_size group_size_ratio standard_deviation_ratio mean_difference welch
         <dbl>            <dbl>                    <dbl>           <dbl> <dbl>
 1          30              0.5                        1             0.5 0.21 
 2          60              0.5                        1             0.5 0.411
 3          90              0.5                        1             0.5 0.577
 4         120              0.5                        1             0.5 0.726
 5          30              1                          1             0.5 0.274
 6          60              1                          1             0.5 0.47 
 7          90              1                          1             0.5 0.649
 8         120              1                          1             0.5 0.797
 9          30              2                          1             0.5 0.239
10          60              2                          1             0.5 0.443
# ℹ 26 more rows
# ℹ 1 more variable: independent <dbl>
…
library(SimDesign)
# SimFunctions()

Design <- createDesign(sample_size = c(30, 60, 90, 120),
                       group_sizes = list(c(1/3, 2/3),
                                            c(1/2, 1/2),
                                            c(2/3, 1/3)),
                       standard_deviations = list(c(1, 1),
                                               c(1, 4),
                                               c(1, 8)),
                       means = list(c(0, 0), c(0, 0.5)))
Design

# A tibble: 72 × 4
   sample_size group_sizes standard_deviations means    
         <dbl> <list>      <list>              <list>   
 1          30 <dbl [2]>   <dbl [2]>           <dbl [2]>
 2          60 <dbl [2]>   <dbl [2]>           <dbl [2]>
 3          90 <dbl [2]>   <dbl [2]>           <dbl [2]>
 4         120 <dbl [2]>   <dbl [2]>           <dbl [2]>
 5          30 <dbl [2]>   <dbl [2]>           <dbl [2]>
 6          60 <dbl [2]>   <dbl [2]>           <dbl [2]>
 7          90 <dbl [2]>   <dbl [2]>           <dbl [2]>
 8         120 <dbl [2]>   <dbl [2]>           <dbl [2]>
 9          30 <dbl [2]>   <dbl [2]>           <dbl [2]>
10          60 <dbl [2]>   <dbl [2]>           <dbl [2]>
# ℹ 62 more rows
…
Summarise <- function(condition, results, fixed_objects = NULL){
    ret <- EDR(results, alpha = .05)
    ret
}

#---------------------------------------------------

res <- runSimulation(design = Design, replications = 1000, verbose = FALSE, parallel=TRUE,
                     generate = Generate, analyse = Analyse, summarise = Summarise)
res

# A tibble: 72 × 10
   sample_size group_sizes standard_deviations means     welch independent
         <dbl> <list>      <list>              <list>    <dbl>       <dbl>
 1          30 <dbl [2]>   <dbl [2]>           <dbl [2]> 0.048       0.047
 2          60 <dbl [2]>   <dbl [2]>           <dbl [2]> 0.052       0.051
 3          90 <dbl [2]>   <dbl [2]>           <dbl [2]> 0.041       0.044
 4         120 <dbl [2]>   <dbl [2]>           <dbl [2]> 0.047       0.051
 5          30 <dbl [2]>   <dbl [2]>           <dbl [2]> 0.046       0.046
 6          60 <dbl [2]>   <dbl [2]>           <dbl [2]> 0.041       0.041
 7          90 <dbl [2]>   <dbl [2]>           <dbl [2]> 0.049       0.049
 8         120 <dbl [2]>   <dbl [2]>           <dbl [2]> 0.067       0.067
 9          30 <dbl [2]>   <dbl [2]>           <dbl [2]> 0.052       0.061
10          60 <dbl [2]>   <dbl [2]>           <dbl [2]> 0.056       0.052
# ℹ 62 more rows
# ℹ 4 more variables: REPLICATIONS <dbl>, SIM_TIME <chr>, SEED <int>,
#   COMPLETED <chr>
