SimDesign
…
# print results
print(res)

## # A tibble: 33 x 7
##    mean_diff sample_size      p REPLICATIONS SIM_TIME COMPLETED             SEED
##        <dbl>       <dbl>  <dbl>        <int>    <dbl> <chr>                <int>
##  1       0            10 0.0492        10000    0.628 Wed Sep 29 19:40   1.14e9
##  2       0.1          10 0.054         10000    0.377 Wed Sep 29 19:40   3.13e8
##  3       0.2          10 0.069         10000    0.497 Wed Sep 29 19:40   8.66e8
##  4       0.3          10 0.0999        10000    0.471 Wed Sep 29 19:40   1.91e9
##  5       0.4          10 0.135         10000    0.448 Wed Sep 29 19:40   5.55e8
##  6       0.5          10 0.186         10000    0.369 Wed Sep 29 19:40   8.85e8
##  7       0.6          10 0.245         10000    0.419 Wed Sep 29 19:40   8.03e8
##  8       0.7          10 0.316         10000    0.464 Wed Sep 29 19:40   1.16e9
##  9       0.8          10 0.387         10000    0.813 Wed Sep 29 19:40   9.35e8
## 10       0.9          10 0.467         10000    0.441 Wed Sep 29 19:40   1.63e9
## #  with 23 more rows
…
Power-curve with Bootstrapped Confidence Intervals

In situations where analytic power estimation is not available, and therefore simulations are used as a suitable stand-in, its important to evaluate the precision of the observed power estimates from the simulation study. As such, one reasonable (and extremely general approach) is to apply bootstrapping methodology to the within replication; for simulated power analyses this involves bootstrapping the \(R\) replicated \(p\)-values to obtain suitable non-parametric confidence intervals.

The following implements the empirical (i.e., basic) bootstrap CI method for the simulation above, and instead plots the point-wise 95% CIs estimates for each condition in the Design input. Notice that the replications were reduced from 10000 to 1000 to demonstrate the potential uncertainty when using too few replications when estimating power via simulation.

### Run the simulation (using all available cores)
res <- runSimulation(Design, replications=1000, verbose=FALSE, parallel=TRUE,
                     generate=Generate, analyse=Analyse, summarise=Summarise,
                     boot_method = 'basic')
res

## # A tibble: 33 x 9
##    mean_diff sample_size     p BOOT_p_2.5 BOOT_p_97.5 REPLICATIONS SIM_TIME
##        <dbl>       <dbl> <dbl>      <dbl>       <dbl>        <int>    <dbl>
##  1       0            10 0.052      0.039      0.065          1000    0.779
##  2       0.1          10 0.064      0.048      0.079          1000    0.776
##  3       0.2          10 0.071      0.054      0.0860         1000    0.866
##  4       0.3          10 0.091      0.073      0.108          1000    0.743
##  5       0.4          10 0.126      0.105      0.146          1000    0.668
##  6       0.5          10 0.203      0.178      0.228          1000    0.663
##  7       0.6          10 0.251      0.222      0.278          1000    0.743
##  8       0.7          10 0.299      0.269      0.327          1000    1.01 
##  9       0.8          10 0.395      0.363      0.424          1000    0.658
## 10       0.9          10 0.489      0.459      0.519          1000    0.709
## #  with 23 more rows, and 2 more variables: COMPLETED <chr>, SEED <int>
…
Finally, when increasing the replications back to 10000 it become visually clear how precise the original point-estimates presented in the previous section were.

### Run the simulation (using all available cores)
res <- runSimulation(Design, replications=10000, verbose=FALSE, parallel=TRUE,
                     generate=Generate, analyse=Analyse, summarise=Summarise,
                     boot_method = 'basic')
res

## # A tibble: 33 x 9
##    mean_diff sample_size      p BOOT_p_2.5 BOOT_p_97.5 REPLICATIONS SIM_TIME
##        <dbl>       <dbl>  <dbl>      <dbl>       <dbl>        <int>    <dbl>
##  1       0            10 0.0537     0.0493      0.0584        10000     6.80
##  2       0.1          10 0.0532     0.0488      0.0578        10000     6.98
##  3       0.2          10 0.0746     0.0695      0.0795        10000     6.67
##  4       0.3          10 0.0956     0.0899      0.101         10000     6.43
##  5       0.4          10 0.133      0.126       0.139         10000     7.63
##  6       0.5          10 0.189      0.182       0.197         10000     6.88
##  7       0.6          10 0.253      0.245       0.262         10000     7.86
##  8       0.7          10 0.325      0.316       0.334         10000     7.24
##  9       0.8          10 0.396      0.387       0.405         10000     6.40
## 10       0.9          10 0.476      0.467       0.486         10000     6.46
## #  with 23 more rows, and 2 more variables: COMPLETED <chr>, SEED <int>
…
