Comparison of For-Loop and SimDesign code
…
Design: 52/54;   Replications: 1000;   RAM Used: 60.2 Mb;   Total Time: 04m 37.32s 
 Conditions: N=300, a=0, b=0.3, cp=0.2

Design: 53/54;   Replications: 1000;   RAM Used: 60.3 Mb;   Total Time: 04m 42.90s 
 Conditions: N=100, a=0.3, b=0.3, cp=0.2

Design: 54/54;   Replications: 1000;   RAM Used: 60.3 Mb;   Total Time: 04m 48.18s 
 Conditions: N=300, a=0.3, b=0.3, cp=0.2

Simulation complete. Total execution time: 04m 53.74s

res

# A tibble: 54 × 11
       N     a     b    cp sobel sobel_incorrect REPLICATIONS SIM_TIME RAM_USED
   <dbl> <dbl> <dbl> <dbl> <dbl>           <dbl>        <dbl> <chr>    <chr>   
 1   100  -0.3  -0.3  -0.2 0.487           0.063         1000 5.40s    59.4 Mb 
 2   300  -0.3  -0.3  -0.2 0.995           0.382         1000 5.52s    59.4 Mb 
 3   100   0    -0.3  -0.2 0.012           0.194         1000 5.33s    59.4 Mb 
 4   300   0    -0.3  -0.2 0.026           0.866         1000 5.49s    59.4 Mb 
 5   100   0.3  -0.3  -0.2 0.501           0.451         1000 5.36s    59.5 Mb 
 6   300   0.3  -0.3  -0.2 0.997           0.993         1000 5.52s    59.5 Mb 
 7   100  -0.3   0    -0.2 0.014           0.003         1000 5.35s    59.5 Mb 
 8   300  -0.3   0    -0.2 0.034           0.018         1000 5.52s    59.5 Mb 
 9   100   0     0    -0.2 0               0.002         1000 5.34s    59.5 Mb 
10   300   0     0    -0.2 0               0.013         1000 5.49s    59.6 Mb 
# ℹ 44 more rows
# ℹ 2 more variables: SEED <int>, COMPLETED <chr>

res

# A tibble: 54 × 11
       N     a     b    cp sobel sobel_incorrect REPLICATIONS SIM_TIME RAM_USED
   <dbl> <dbl> <dbl> <dbl> <dbl>           <dbl>        <dbl> <chr>    <chr>   
 1   100  -0.3  -0.3  -0.2 0.487           0.063         1000 5.40s    59.4 Mb 
 2   300  -0.3  -0.3  -0.2 0.995           0.382         1000 5.52s    59.4 Mb 
 3   100   0    -0.3  -0.2 0.012           0.194         1000 5.33s    59.4 Mb 
 4   300   0    -0.3  -0.2 0.026           0.866         1000 5.49s    59.4 Mb 
 5   100   0.3  -0.3  -0.2 0.501           0.451         1000 5.36s    59.5 Mb 
 6   300   0.3  -0.3  -0.2 0.997           0.993         1000 5.52s    59.5 Mb 
 7   100  -0.3   0    -0.2 0.014           0.003         1000 5.35s    59.5 Mb 
 8   300  -0.3   0    -0.2 0.034           0.018         1000 5.52s    59.5 Mb 
 9   100   0     0    -0.2 0               0.002         1000 5.34s    59.5 Mb 
10   300   0     0    -0.2 0               0.013         1000 5.49s    59.6 Mb 
# ℹ 44 more rows
# ℹ 2 more variables: SEED <int>, COMPLETED <chr>
…
