Fully-crossed simulation designs
…
library(SimDesign)

Design <- createDesign(sample_size=c(100,200),
                       mean_diff=c(.25, 2),
                       variance.ratio=c(1,4),
                       equal_size=c(TRUE, FALSE),
                       dists=c('norm', 'skew'),
                       same_dists=c(TRUE, FALSE),
                       symmetric=c(TRUE, FALSE),
                       # remove same-normal combo
                       subset = !(symmetric & dists == 'norm'))
Design

# A tibble: 96 × 7
   sample_size mean_diff variance.ratio equal_size dists same_dists symmetric
         <dbl>     <dbl>          <dbl> <lgl>      <chr> <lgl>      <lgl>    
 1         100      0.25              1 TRUE       skew  TRUE       TRUE     
 2         200      0.25              1 TRUE       skew  TRUE       TRUE     
 3         100      2                 1 TRUE       skew  TRUE       TRUE     
 4         200      2                 1 TRUE       skew  TRUE       TRUE     
 5         100      0.25              4 TRUE       skew  TRUE       TRUE     
 6         200      0.25              4 TRUE       skew  TRUE       TRUE     
 7         100      2                 4 TRUE       skew  TRUE       TRUE     
 8         200      2                 4 TRUE       skew  TRUE       TRUE     
 9         100      0.25              1 FALSE      skew  TRUE       TRUE     
10         200      0.25              1 FALSE      skew  TRUE       TRUE     
# ℹ 86 more rows
…
Analyse <- function(condition, dat, fixed_objects = NULL) {
    test <- t.test(DV ~ group, data=dat, var.equal=TRUE)
    ret <- c(detect=test$p.value < .05)
    ret
}

#-------------------------------------------------------------------

# note the omission of the summarise function
res <- runSimulation(design=Design, replications=20, 
                     generate=Generate, analyse=Analyse, verbose=FALSE)
res

# A tibble: 1,920 × 8
   sample_size mean_diff variance.ratio equal_size dists same_dists symmetric
         <dbl>     <dbl>          <dbl> <lgl>      <chr> <lgl>      <lgl>    
 1         100      0.25              1 TRUE       skew  TRUE       TRUE     
 2         100      0.25              1 TRUE       skew  TRUE       TRUE     
 3         100      0.25              1 TRUE       skew  TRUE       TRUE     
 4         100      0.25              1 TRUE       skew  TRUE       TRUE     
 5         100      0.25              1 TRUE       skew  TRUE       TRUE     
 6         100      0.25              1 TRUE       skew  TRUE       TRUE     
 7         100      0.25              1 TRUE       skew  TRUE       TRUE     
 8         100      0.25              1 TRUE       skew  TRUE       TRUE     
 9         100      0.25              1 TRUE       skew  TRUE       TRUE     
10         100      0.25              1 TRUE       skew  TRUE       TRUE     
# ℹ 1,910 more rows
# ℹ 1 more variable: detect <lgl>
…
# Create working simulation design given -1/1 combinations
fDesign <- createDesign(sample_size=c(100,200),
                        mean_diff=c(.25, 2),
                        variance.ratio=c(1,4),
                        equal_size=c(TRUE, FALSE),
                        dists=c('norm', 'skew'),
                        same_dists=c(TRUE, FALSE),
                        symmetric=c(TRUE, FALSE),
                        # remove same-normal combo
                        subset = !(symmetric & dists == 'norm'),
                        fractional=fr)
fDesign

# A tibble: 48 × 7
   sample_size mean_diff variance.ratio equal_size dists same_dists symmetric
         <dbl>     <dbl>          <dbl> <lgl>      <chr> <lgl>      <lgl>    
 1         100      2                 4 FALSE      norm  TRUE       FALSE    
 2         100      0.25              1 FALSE      skew  FALSE      FALSE    
 3         200      2                 4 FALSE      skew  FALSE      TRUE     
 4         200      2                 4 FALSE      skew  TRUE       FALSE    
 5         200      2                 4 TRUE       skew  TRUE       TRUE     
 6         200      2                 1 FALSE      skew  TRUE       TRUE     
 7         100      2                 1 FALSE      skew  FALSE      TRUE     
 8         100      0.25              4 TRUE       skew  FALSE      FALSE    
 9         200      2                 1 FALSE      norm  TRUE       FALSE    
10         200      0.25              4 FALSE      skew  FALSE      FALSE    
# ℹ 38 more rows

dim(fDesign)

[1] 48  7

Notice that the fractional factor design has fewer condition than the fully-crossed version above. However, despite this reduced number of conditions valid main and two-way interaction effects are still estimable.

# note the omission of the summarise function
fres <- runSimulation(design=fDesign, replications=20, 
                     generate=Generate, analyse=Analyse, verbose=FALSE)
fres

# A tibble: 960 × 8
   sample_size mean_diff variance.ratio equal_size dists same_dists symmetric
         <dbl>     <dbl>          <dbl> <lgl>      <chr> <lgl>      <lgl>    
 1         100         2              4 FALSE      norm  TRUE       FALSE    
 2         100         2              4 FALSE      norm  TRUE       FALSE    
 3         100         2              4 FALSE      norm  TRUE       FALSE    
 4         100         2              4 FALSE      norm  TRUE       FALSE    
 5         100         2              4 FALSE      norm  TRUE       FALSE    
 6         100         2              4 FALSE      norm  TRUE       FALSE    
 7         100         2              4 FALSE      norm  TRUE       FALSE    
 8         100         2              4 FALSE      norm  TRUE       FALSE    
 9         100         2              4 FALSE      norm  TRUE       FALSE    
10         100         2              4 FALSE      norm  TRUE       FALSE    
# ℹ 950 more rows
# ℹ 1 more variable: detect <lgl>
…
# note the omission of the summarise function
fres <- runSimulation(design=fDesign, replications=20, 
                     generate=Generate, analyse=Analyse, verbose=FALSE)
fres

# A tibble: 240 × 8
   sample_size mean_diff variance.ratio equal_size dists same_dists symmetric
         <dbl>     <dbl>          <dbl> <lgl>      <chr> <lgl>      <lgl>    
 1         100         2              1 TRUE       skew  FALSE      TRUE     
 2         100         2              1 TRUE       skew  FALSE      TRUE     
 3         100         2              1 TRUE       skew  FALSE      TRUE     
 4         100         2              1 TRUE       skew  FALSE      TRUE     
 5         100         2              1 TRUE       skew  FALSE      TRUE     
 6         100         2              1 TRUE       skew  FALSE      TRUE     
 7         100         2              1 TRUE       skew  FALSE      TRUE     
 8         100         2              1 TRUE       skew  FALSE      TRUE     
 9         100         2              1 TRUE       skew  FALSE      TRUE     
10         100         2              1 TRUE       skew  FALSE      TRUE     
# ℹ 230 more rows
# ℹ 1 more variable: detect <lgl>
…
