Brown and Forsythe (1974) simulation
…
Summarise <- function(condition, results, fixed_objects = NULL) {
    ret <- EDR(results, alpha = .05)
    ret
}

#-------------------------------------------------------------------
# Run the MCS

res <- runSimulation(design=Design, replications=1000, parallel=TRUE,
                     generate=Generate, analyse=Analyse,
                     summarise=Summarise, packages='lawstat',
                     filename='BF_simulation')
res

# A tibble: 68 × 14
   var_ratio     N groups_equal distribution     F Jacknife Layard Levene   W10
       <dbl> <dbl> <lgl>        <chr>        <dbl>    <dbl>  <dbl>  <dbl> <dbl>
 1      4       80 TRUE         Gaussian     0.995    0.99   0.99   0.978 0.978
 2      2       80 TRUE         Gaussian     0.538    0.52   0.533  0.478 0.472
 3      1       80 TRUE         Gaussian     0.047    0.039  0.041  0.039 0.04 
 4      0.5     80 TRUE         Gaussian     0.577    0.56   0.564  0.51  0.501
 5      0.25    80 TRUE         Gaussian     0.99     0.984  0.986  0.978 0.975
 6      4       20 TRUE         Gaussian     0.517    0.421  0.517  0.439 0.42 
 7      2       20 TRUE         Gaussian     0.153    0.134  0.177  0.152 0.137
 8      1       20 TRUE         Gaussian     0.047    0.059  0.07   0.059 0.052
 9      0.5     20 TRUE         Gaussian     0.166    0.134  0.189  0.135 0.129
10      0.25    20 TRUE         Gaussian     0.513    0.412  0.52   0.435 0.403
# ℹ 58 more rows
# ℹ 5 more variables: W50 <dbl>, REPLICATIONS <int>, SIM_TIME <chr>,
#   COMPLETED <chr>, SEED <int>
…
# Power
Power <- subset(res, var_ratio != 1)
Power

# A tibble: 52 × 14
   var_ratio     N groups_equal distribution     F Jacknife Layard Levene   W10
       <dbl> <dbl> <lgl>        <chr>        <dbl>    <dbl>  <dbl>  <dbl> <dbl>
 1      4       80 TRUE         Gaussian     0.995    0.99   0.99   0.978 0.978
 2      2       80 TRUE         Gaussian     0.538    0.52   0.533  0.478 0.472
 3      0.5     80 TRUE         Gaussian     0.577    0.56   0.564  0.51  0.501
 4      0.25    80 TRUE         Gaussian     0.99     0.984  0.986  0.978 0.975
 5      4       20 TRUE         Gaussian     0.517    0.421  0.517  0.439 0.42 
 6      2       20 TRUE         Gaussian     0.153    0.134  0.177  0.152 0.137
 7      0.5     20 TRUE         Gaussian     0.166    0.134  0.189  0.135 0.129
 8      0.25    20 TRUE         Gaussian     0.513    0.412  0.52   0.435 0.403
 9      4       60 FALSE        Gaussian     0.92     0.903  0.876  0.895 0.89 
10      2       60 FALSE        Gaussian     0.43     0.389  0.371  0.36  0.353
# ℹ 42 more rows
# ℹ 5 more variables: W50 <dbl>, REPLICATIONS <int>, SIM_TIME <chr>,
#   COMPLETED <chr>, SEED <int>
