Flora and Curran (2004) simulation
…
######################################################

# run simulation
res <- runSimulation(design=Design, replications=500, generate=Generate,
                     analyse=Analyse, summarise=Summarise, packages='lavaan', 
                     parallel=TRUE, max_errors=100, save_results=TRUE,
                     filename='FloraCurran2004')
res

# A tibble: 300 × 20
       N categories skewness_kurtosis factors indicators estimator mean_X2
   <dbl>      <dbl> <list>              <dbl>      <dbl> <chr>       <dbl>
 1   100          2 <dbl [2]>               1          5 WLSMV      4.7961
 2   200          2 <dbl [2]>               1          5 WLSMV      4.8579
 3   500          2 <dbl [2]>               1          5 WLSMV      5.0052
 4  1000          2 <dbl [2]>               1          5 WLSMV      5.0903
 5   100          5 <dbl [2]>               1          5 WLSMV      4.8931
 6   200          5 <dbl [2]>               1          5 WLSMV      4.9868
 7   500          5 <dbl [2]>               1          5 WLSMV      5.1779
 8  1000          5 <dbl [2]>               1          5 WLSMV      5.1632
 9   100          2 <dbl [2]>               1          5 WLSMV      4.7838
10   200          2 <dbl [2]>               1          5 WLSMV      4.9057
# ℹ 290 more rows
# ℹ 13 more variables: sd_X2 <dbl>, edr_05 <dbl>, pool_mean_lambdas <dbl>,
#   pool_SD_lambdas <dbl>, mean_se <dbl>, RB_X2 <dbl>, RB_phi21 <dbl>,
#   REPLICATIONS <dbl>, SIM_TIME <chr>, COMPLETED <chr>, SEED <int>,
#   ERRORS <int>, WARNINGS <int>
…
