Hu and Bentler (1999) simulation
…
#-------------------------------------------------------------------

res <- runSimulation(design=Design, replications=1000, parallel=TRUE,
                     debug='none', store_results=TRUE,
                     generate=Generate, fixed_objects=fo,
                     analyse=Analyse, summarise=Summarise,
                     packages=c("relliptical", "lavaan"),
                     filename='HuBentler1999')
res

# A tibble: 252 × 103
   model   gen_condition     N fit_model mean.npar mean.fmin mean.chisq mean.df
   <chr>   <chr>         <dbl> <chr>         <dbl>     <dbl>      <dbl>   <dbl>
 1 simple  normal          150 true             33   0.30457     91.370      87
 2 complex normal          150 true             36   0.56044    168.13       84
 3 simple  nonnormal1      150 true             33   0.30722     92.166      87
 4 complex nonnormal1      150 true             36   0.57259    171.78       84
 5 simple  nonnormal2      150 true             33   0.30296     90.889      87
 6 complex nonnormal2      150 true             36   0.57394    172.18       84
 7 simple  nonnormal3      150 true             33   0.30719     92.156      87
 8 complex nonnormal3      150 true             36   0.56485    169.45       84
 9 simple  elliptical      150 true             33   0.30405     91.216      87
10 complex elliptical      150 true             36   0.37740    113.22       84
# ℹ 242 more rows
# ℹ 95 more variables: mean.pvalue <dbl>, mean.baseline.chisq <dbl>,
#   mean.baseline.df <dbl>, mean.baseline.pvalue <dbl>, mean.cfi <dbl>,
#   mean.tli <dbl>, mean.nnfi <dbl>, mean.rfi <dbl>, mean.nfi <dbl>,
#   mean.pnfi <dbl>, mean.ifi <dbl>, mean.rni <dbl>, mean.logl <dbl>,
#   mean.unrestricted.logl <dbl>, mean.aic <dbl>, mean.bic <dbl>,
#   mean.ntotal <dbl>, mean.bic2 <dbl>, mean.rmsea <dbl>, …
…
Above simulation does not contain the specific cut-offs utilized by the authors (e.g., CFI > .9 or RMSEA < .08). However, because the results were stored in the final object via store_results = TRUE these can be obtained by resummarising the results. Doing so just requires applying the reSummarise() function.

# new summarise function for obtaining specific cut-offs
Summarise <- function(condition, results, fixed_objects = NULL) {
   cut1 <- colMeans(results[,c('cfi', 'tli', 'nnfi', 'gfi', 'agfi', 'mfi')] > .90)
   cut2 <- colMeans(results[,c('rmsea', 'srmr')] < .08)
   ret <- c(cut90=cut1, cut08=cut2)
   ret
}

newres <- reSummarise(Summarise, results=res)
newres

# A tibble: 252 × 12
   model  gen_condition     N fit_model cut90.cfi cut90.tli cut90.nnfi cut90.gfi
   <chr>  <chr>         <dbl> <chr>         <dbl>     <dbl>      <dbl>     <dbl>
 1 simple normal          150 true          1         1          1         0.996
 2 compl… normal          150 true          0.963     0.777      0.777     0.031
 3 simple nonnormal1      150 true          1         1          1         0.994
 4 compl… nonnormal1      150 true          0.946     0.726      0.726     0.016
 5 simple nonnormal2      150 true          1         1          1         0.998
 6 compl… nonnormal2      150 true          0.932     0.708      0.708     0.019
 7 simple nonnormal3      150 true          1         1          1         0.992
 8 compl… nonnormal3      150 true          0.95      0.775      0.775     0.017
 9 simple elliptical      150 true          0.994     0.983      0.983     0.994
10 compl… elliptical      150 true          0.955     0.859      0.859     0.777
# ℹ 242 more rows
# ℹ 4 more variables: cut90.agfi <dbl>, cut90.mfi <dbl>, cut08.rmsea <dbl>,
#   cut08.srmr <dbl>
…
Same as above, but now with more strict cutoffs (CFI >.95, RMSEA < .05).

# new summarise function for obtaining specific cut-offs
Summarise <- function(condition, results, fixed_objects = NULL) {
   cut1 <- colMeans(results[,c('cfi', 'tli', 'nnfi', 'gfi', 'agfi', 'mfi')] > .95)
   cut2 <- colMeans(results[,c('rmsea', 'srmr')] < .05)
   ret <- c(cut95=cut1, cut05=cut2)
   ret
}

newres2 <- reSummarise(Summarise, results=res)
newres2

# A tibble: 252 × 12
   model  gen_condition     N fit_model cut95.cfi cut95.tli cut95.nnfi cut95.gfi
   <chr>  <chr>         <dbl> <chr>         <dbl>     <dbl>      <dbl>     <dbl>
 1 simple normal          150 true          0.998     0.99       0.99      0.004
 2 compl… normal          150 true          0.195     0.084      0.084     0    
 3 simple nonnormal1      150 true          0.998     0.994      0.994     0.009
 4 compl… nonnormal1      150 true          0.156     0.058      0.058     0    
 5 simple nonnormal2      150 true          1         0.997      0.997     0.009
 6 compl… nonnormal2      150 true          0.153     0.059      0.059     0    
 7 simple nonnormal3      150 true          0.998     0.992      0.992     0.009
 8 compl… nonnormal3      150 true          0.186     0.065      0.065     0    
 9 simple elliptical      150 true          0.901     0.866      0.866     0.009
10 compl… elliptical      150 true          0.525     0.397      0.397     0.001
# ℹ 242 more rows
# ℹ 4 more variables: cut95.agfi <dbl>, cut95.mfi <dbl>, cut05.rmsea <dbl>,
#   cut05.srmr <dbl>
…
