Kang and Cohen (2007) simulation 2
…
#-------------------------------------------------------------------

res <- runSimulation(design=Design, replications=500, generate=Generate, 
                     analyse=list(Analyse.MML, Analyse.MCMC), # unnamed list to avoid extra labels
                     summarise=Summarise, fixed_objects=fo,
                     packages='mirt', parallel=TRUE, max_errors = Inf, 
                     filename='KangCohen')
res

# A tibble: 36 × 36
   nitems ability_mean sample_size model estimator means.M1PL.AIC means.M1PL.BIC
    <dbl>        <dbl>       <dbl> <chr> <chr>              <dbl>          <dbl>
 1     20            0         500 1PL   MML               11752.         11836.
 2     40            0         500 1PL   MML               22827.         22996.
 3     20           -1         500 1PL   MML               10904.         10988.
 4     40           -1         500 1PL   MML               20718.         20886.
 5     20            1         500 1PL   MML               10516.         10600.
 6     40            1         500 1PL   MML               20943.         21112.
 7     20            0        1000 1PL   MML               23495.         23593.
 8     40            0        1000 1PL   MML               45625.         45821.
 9     20           -1        1000 1PL   MML               21806.         21905.
10     40           -1        1000 1PL   MML               41344.         41540.
# ℹ 26 more rows
# ℹ 29 more variables: means.M2PL.AIC <dbl>, means.M2PL.BIC <dbl>,
#   means.M3PL.AIC <dbl>, means.M3PL.BIC <dbl>, means.LR12.X2 <dbl>,
#   means.LR23.X2 <dbl>, sds.M1PL.AIC <dbl>, sds.M1PL.BIC <dbl>,
#   sds.M2PL.AIC <dbl>, sds.M2PL.BIC <dbl>, sds.M3PL.AIC <dbl>,
#   sds.M3PL.BIC <dbl>, sds.LR12.X2 <dbl>, sds.LR23.X2 <dbl>, M1PL.BIC <dbl>,
#   M2PL.BIC <dbl>, M3PL.BIC <dbl>, M1PL.AIC <dbl>, M2PL.AIC <dbl>, …
…
##################################
## proportion of competing models selected (more general measure than nose count)
Table9 <- res %>% filter(estimator == "MML") %>%
    select(nitems:model, M1PL.BIC:M3PL.LR) %>%
    arrange(nitems, sample_size, ability_mean, model)
Table9

# A tibble: 36 × 13
   nitems ability_mean sample_size model M1PL.BIC M2PL.BIC M3PL.BIC M1PL.AIC
    <dbl>        <dbl>       <dbl> <chr>    <dbl>    <dbl>    <dbl>    <dbl>
 1     20           -1         500 1PL      1        0            0    0.992
 2     20           -1         500 2PL      0.018    0.982        0    0    
 3     20           -1         500 3PL      0        1            0    0    
 4     20            0         500 1PL      1        0            0    0.994
 5     20            0         500 2PL      0        1            0    0    
 6     20            0         500 3PL      0.268    0.732        0    0    
 7     20            1         500 1PL      1        0            0    0.996
 8     20            1         500 2PL      0.004    0.996        0    0    
 9     20            1         500 3PL      0.786    0.214        0    0    
10     20           -1        1000 1PL      1        0            0    0.998
# ℹ 26 more rows
# ℹ 5 more variables: M2PL.AIC <dbl>, M3PL.AIC <dbl>, M1PL.LR <dbl>,
#   M2PL.LR <dbl>, M3PL.LR <dbl>

##################################

# graphics
library(tidyr)
long <- Table9 %>% 
    pivot_longer(M1PL.BIC:M3PL.LR, names_to='fit_stat') %>% 
    separate(fit_stat, c('fit', 'stat')) %>% 
    mutate(stat=factor(stat), fit=factor(fit), model=factor(model))
long

# A tibble: 324 × 7
   nitems ability_mean sample_size model fit   stat  value
    <dbl>        <dbl>       <dbl> <fct> <fct> <fct> <dbl>
 1     20           -1         500 1PL   M1PL  BIC   1    
 2     20           -1         500 1PL   M2PL  BIC   0    
 3     20           -1         500 1PL   M3PL  BIC   0    
 4     20           -1         500 1PL   M1PL  AIC   0.992
 5     20           -1         500 1PL   M2PL  AIC   0.008
 6     20           -1         500 1PL   M3PL  AIC   0    
 7     20           -1         500 1PL   M1PL  LR    0.93 
 8     20           -1         500 1PL   M2PL  LR    0.068
 9     20           -1         500 1PL   M3PL  LR    0.002
10     20           -1         500 2PL   M1PL  BIC   0.018
# ℹ 314 more rows
…
