…
``` r
# list elements are named based on the error observed
names(eseeds$SEEDS[[1]])
```

    ## [1] "Error in t test default     argument  x  is missing  with no default "
    ## [2] "Manual error thrown "                                                 
    ## [3] "Error in t test default  invalid     not enough  x  observations "

``` r
# one of the seeds seed associated with a condition error (third unique error raised)
eseeds$SEEDS[[1]][[3]][,1]
```

    ## # A tibble: 626 × 1
    ##    Design_row_1.11..Error.in.t.test.default..invalid.....not.enough..x..observ…¹
    ##                                                                            <int>
    ##  1                                                                         10403
    ##  2                                                                           115
    ##  3                                                                    2043326239
    ##  4                                                                    -971754976
    ##  5                                                                    -386998729
    ##  6                                                                    1721252608
    ##  7                                                                     230191164
    ##  8                                                                     546351527
    ##  9                                                                     910264940
    ## 10                                                                   -1637379845
    ## # ℹ 616 more rows
    ## # ℹ abbreviated name:
    ## #   ¹​Design_row_1.11..Error.in.t.test.default..invalid.....not.enough..x..observations.
…
