Distributing jobs for high-performance computing (HPC) clusters (e.g., via Slurm) • SimDesign
…
rc <- 100   # number of times the design row was repeated
Design300 <- expandDesign(Design, repeat_conditions = rc)
Design300

## # A tibble: 300 × 1
##        N
##    <dbl>
##  1    10
##  2    10
##  3    10
##  4    10
##  5    10
##  6    10
##  7    10
##  8    10
##  9    10
## 10    10
## # ℹ 290 more rows
…
The above approach assumes that each design condition is
equally balanced in terms of computing time and resources, though if
this is not the case (e.g., the last condition contains notably higher
computing times than the first two conditions) then
repeat_conditions can be specified as a vector instead,
such as repeat_conditions = c(100, 100, 1000), which for
the latter portion would be associated with a 10 replications per
distributed node instead of 100.

rc <- c(100, 100, 1000)
DesignUnbalanced <- expandDesign(Design, repeat_conditions = rc)
DesignUnbalanced

## # A tibble: 1,200 × 1
##        N
##    <dbl>
##  1    10
##  2    10
##  3    10
##  4    10
##  5    10
##  6    10
##  7    10
##  8    10
##  9    10
## 10    10
## # ℹ 1,190 more rows
…
So, we now just glue on the new subDesign information to
the original expanded version, though telling the scheduler to only
evaluate these new rows in the #SBATCH --array
specification (this is technically unnecessary, but is conceptually
clear and keeps all simulation files and array IDs consistent).

rc <- 50
Design_left <- expandDesign(subDesign, rc) # smaller number of reps per array
Design_left

## # A tibble: 100 × 1
##        N
##    <dbl>
##  1    10
##  2    10
##  3    10
##  4    10
##  5    10
##  6    10
##  7    10
##  8    10
##  9    10
## 10    10
## # ℹ 90 more rows
…
