…
If `runSimulation(..., store_results = TRUE)` were used, which is the
current default in the package if RAM is not an issue, then the complete
stored results can be viewed using

``` r
# Extract complete set of stored results
results <- SimResults(res)
results
```

    ## # A tibble: 8,000 × 6
    ##    sample_size distribution mean_no_trim mean_trim.1 mean_trim.2 median
    ##          <dbl> <chr>               <dbl>       <dbl>       <dbl>  <dbl>
    ##  1          30 norm                 3.18        3.14        3.15   3.17
    ##  2          30 norm                 2.84        2.80        2.78   2.86
    ##  3          30 norm                 3.29        3.21        3.14   2.95
    ##  4          30 norm                 3.34        3.37        3.34   3.28
    ##  5          30 norm                 2.78        2.77        2.77   2.76
    ##  6          30 norm                 3.15        3.08        3.06   3.03
    ##  7          30 norm                 3.03        3.00        3.00   2.99
    ##  8          30 norm                 3.50        3.51        3.55   3.55
    ##  9          30 norm                 2.95        2.91        2.90   2.94
    ## 10          30 norm                 2.98        2.99        3.01   2.95
    ## # ℹ 7,990 more rows
…
